{
"type": "FeatureCollection",
"crs": { "type": "name", "properties": { "name": "urn:ogc:def:crs:OGC:1.3:CRS84" } },
                                                                                
"features": [
{ "type": "Feature", "properties": { "Name": "F128", "description": null, "timestamp": null, "begin": null, "end": null, "altitudeMode": null, "tessellate": -1, "extrude": -1, "visibility": -1, "drawOrder": null, "icon": null }, "geometry": { "type": "Point", "coordinates": [ 8.6559927, 49.8930171, 0.0 ] } },
{ "type": "Feature", "properties": { "Name": "shpF128", "description": null, "timestamp": null, "begin": null, "end": null, "altitudeMode": null, "tessellate": -1, "extrude": -1, "visibility": -1, "drawOrder": null, "icon": null }, "geometry": { "type": "Polygon", "coordinates": [ [ [ 8.655805, 49.892884, 0.0 ], [ 8.6565104, 49.8930637, 0.0 ], [ 8.6564299, 49.8932072, 0.0 ], [ 8.6562341, 49.8931536, 0.0 ], [ 8.6560678, 49.8934231, 0.0 ], [ 8.6555529, 49.8932953, 0.0 ], [ 8.655805, 49.892884, 0.0 ] ] ] } },
{ "type": "Feature", "properties": { "Name": "shpF131", "description": null, "timestamp": null, "begin": null, "end": null, "altitudeMode": null, "tessellate": -1, "extrude": -1, "visibility": -1, "drawOrder": null, "icon": null }, "geometry": { "type": "Polygon", "coordinates": [ [ [ 8.6543539, 49.8936391, 0.0 ], [ 8.6543325, 49.893494, 0.0 ], [ 8.6544156, 49.8934871, 0.0 ], [ 8.6543915, 49.8933143, 0.0 ], [ 8.654311, 49.8933177, 0.0 ], [ 8.6542815, 49.893183, 0.0 ], [ 8.6549816, 49.8931363, 0.0 ], [ 8.6549923, 49.8932676, 0.0 ], [ 8.6547643, 49.8932849, 0.0 ], [ 8.6547911, 49.8934646, 0.0 ], [ 8.6550352, 49.8934439, 0.0 ], [ 8.655062, 49.8935959, 0.0 ], [ 8.6543539, 49.8936391, 0.0 ] ] ] } },
{ "type": "Feature", "properties": { "Name": "F131", "description": null, "timestamp": null, "begin": null, "end": null, "altitudeMode": null, "tessellate": -1, "extrude": -1, "visibility": -1, "drawOrder": null, "icon": null }, "geometry": { "type": "Point", "coordinates": [ 8.6545363, 49.8934076, 0.0 ] } }
]
}
